{
	"info": {
		"title": "Cold Creeps In&hellip;",
		"description": "Now that winter's settling in (in the Northern hemisphere, at least), here's Lord Dunsany's <cite>Fifty-one Tales</cite> this week for the fire-side, and 6 more stories of dreadful cold for the weekend.",
		"weekdayShift": 1,
		"weekendShift": 0
	},
	"weekday": [
		{
			"id": "FoT-1",
			"file": "FoT-1"
		},
		{
			"id": "FoT-2",
			"file": "FoT-2"
		},
		{
			"id": "FoT-3",
			"file": "FoT-3"
		},
		{
			"id": "FoT-4",
			"file": "FoT-4"
		}
	],
	"weekend": [
		{
			"id": "QP-073",
			"file": "QP-073-Adam"
		},
		{
			"id": "Mag-124",
			"file": "Mag-124-Hanging"
		},
		{
			"id": "Mw-075",
			"file": "Mw-075-Walk"
		},
		{
			"id": "SCP-05005",
			"file": "SCP-05005-Lamplight"
		},
		{
			"id": "QP-085",
			"file": "QP-085-Northern"
		},
		{
			"id": "QP-048",
			"file": "QP-048-Mountain"
		}
	]
}