{
"info": {
	"title": "Serial Week",
	"description": "5 pairs of shows: 3 pairs are 2-parters (<cite>Haunter in the Dark</cite>, <cite>Donovan's Brain</cite> and <cite>SCP-093: &ldquo;Red Sea Object&rdquo;</cite>) and the shows in the other pairs reference each other more obliquely.",
	"weekdayShift": 1,
	"weekendShift": 0
},
"weekday": [
	{"id": "BM-X1"},
	{"id": "BM-X2"},
	{"id": "QP-001"},
	{"id": "QP-099"}
],
"weekend": [
	{"id": "DX-14"},
	{"id": "DX-26"},
	{"id": "Sus-092"},
	{"id": "Sus-093"},
	{"id": "SCP-00093a"},
	{"id": "SCP-00093b"}
]
}