{
"info": {
	"title": "Random Week",
	"description": "Just a random selection of shows!",
	"weekdayShift": 1,
	"weekendShift": 0
},
"weekday": [
	{"id": "LV-004"},
	{"id": "QP-072"},
	{"id": "Mag-115"},
	{"id": "Sus-190"}
],
"weekend": [
	{"id": "QP-030"},
	{"id": "Sus-224"},
	{"id": "QP-067"},
	{"id": "QP-058"},
	{"id": "SCP-00701"},
	{"id": "Sus-143"}
]
}