{
	"info": {
		"title": "Murderous Heat",
		"description": "A week of murder capped off with a weekend of hot <em>hot HOT</em> stories about heat and flame!",
		"weekdayShift": 1,
		"weekendShift": 0
	},
	"weekday": [
		{
			"id": "QP-088",
			"file": "QP-088-Ideas"
		},
		{
			"id": "DX-26",
			"file": "DX-26-Bright"
		},
		{
			"id": "Sus-379",
			"file": "Sus-379-Salvage"
		},
		{
			"id": "Mag-062",
			"file": "Mag-062-Edition"
		}
	],
	"weekend": [
		{
			"id": "Mw-061",
			"file": "Mw-061-Shaft"
		},
		{
			"id": "LO-B025",
			"file": "LO-B025-Flame"
		},
		{
			"id": "QP-069",
			"file": "QP-069-Cellar"
		},
		{
			"id": "LV-001",
			"file": "LV-001-Nameless"
		},
		{
			"id": "Sus-143",
			"file": "Sus-143-August"
		},
		{
			"id": "QP-038",
			"file": "QP-038-Coat"
		}
	]
}